{
    "name": "Users",
    "alias": "users",
    "description": "",
    "keywords": [],
    "active": 1,
    "order": -1,
    "providers": [
        "Modules\\Users\\Providers\\UsersServiceProvider"
    ],
    "aliases": {},
    "files": [
        "start.php"
    ],
    "requires": []
}
